<svg width="18" height="18" viewBox="0 0 18 17" fill="none" xmlns="http://www.w3.org/2000/svg">
<path d="M18 8.48497C18.0001 10.2777 17.4414 12.0247 16.4036 13.4771C15.3657 14.9294 13.9017 16.013 12.2201 16.5733C10.5384 17.1337 8.72507 17.1423 7.03836 16.5979C5.35164 16.0534 3.87766 14.9838 2.82645 13.5413L3.86777 12.7619C4.81778 14.0685 6.17552 15.0121 7.7211 15.4399C9.26668 15.8677 10.9096 15.7547 12.3839 15.1191C13.8581 14.4835 15.0773 13.3626 15.844 11.9379C16.6108 10.5132 16.8802 8.86807 16.6086 7.26899C16.337 5.66991 15.5404 4.21048 14.3476 3.12704C13.1549 2.0436 11.6359 1.39959 10.0367 1.29929C8.43751 1.19899 6.85168 1.64828 5.53604 2.5744C4.22041 3.50052 3.252 4.84925 2.78764 6.40217L3.43442 5.97644L4.15882 7.06369L2.21847 8.37363C2.10414 8.45168 1.96817 8.4907 1.8304 8.48497C1.72445 8.48514 1.62009 8.45894 1.52649 8.40869C1.43288 8.35844 1.3529 8.28567 1.29357 8.19679L0 6.23188L1.07366 5.49831L1.51347 6.15328C2.07464 4.18458 3.31807 2.48683 5.0156 1.37159C6.71312 0.256357 8.75086 -0.201563 10.7549 0.0818662C12.7589 0.365295 14.5948 1.37106 15.9256 2.9146C17.2564 4.45814 17.993 6.43591 18 8.48497ZM8.94502 3.90019V8.48497C8.94453 8.57117 8.96085 8.65662 8.99303 8.73642C9.02522 8.81622 9.07265 8.8888 9.13259 8.95L11.0729 10.9149L11.9914 9.98485L10.2386 8.21644V3.90019H8.94502Z" fill="#11B5E9"/>
</svg>
